<?xml version="1.0" encoding="UTF-8"?>
<!-- Created with Inkscape (http://www.inkscape.org/) -->
<svg width="53.999" height="54" enable-background="new" version="1.1" viewBox="0 0 14.287 14.287" xmlns="http://www.w3.org/2000/svg" xmlns:cc="http://creativecommons.org/ns#" xmlns:dc="http://purl.org/dc/elements/1.1/" xmlns:rdf="http://www.w3.org/1999/02/22-rdf-syntax-ns#">
 <title>Horsesales.ie</title>
 <metadata>
  <rdf:RDF>
   <cc:Work rdf:about="">
    <dc:format>image/svg+xml</dc:format>
    <dc:type rdf:resource="http://purl.org/dc/dcmitype/StillImage"/>
    <dc:title>Horsesales.ie</dc:title>
    <dc:creator>
     <cc:Agent>
      <dc:title>David Matthew</dc:title>
     </cc:Agent>
    </dc:creator>
   </cc:Work>
  </rdf:RDF>
 </metadata>
 <g transform="matrix(.033688 0 0 .033767 -66.026 6.0506)" fill="#207a61">
  <path transform="matrix(.26458 0 0 .26458 0 -232.17)" d="m8187.9 200.42a800 800 0 0 0-277.25 56.488 800 800 0 0 0-498.76 824.23l186.62-19.035a709.13 709.13 0 0 1 438.19-757.71 709.13 709.13 0 0 1 730.55 125.27 800 800 0 0 0-579.36-229.25zm819.05 803.14a709.13 709.13 0 0 1-444.03 617.86 709.13 709.13 0 0 1-810.38-208.87l-136.86 124.11a800 800 0 0 0 888.61 206.04 800 800 0 0 0 502.65-739.14z"/>
  <path d="m1971.2 21.651h412.85l-422.97 32.236z"/>
  <path d="m2071.9-56.698s25.008 4.7209 25.008 18.25v138.49c0 13.529-25.008 18.25-25.008 18.25h74.236s-25.008-4.7209-25.008-18.25v-138.49c0-13.529 25.008-18.25 25.008-18.25z"/>
  <path d="m2214.2-56.698s25.008 4.7209 25.008 18.25v138.49c0 13.529-25.008 18.25-25.008 18.25h74.236s-25.008-4.7209-25.008-18.25v-138.49c0-13.529 25.008-18.25 25.008-18.25z"/>
 </g>
</svg>
