<?xml version="1.0" encoding="UTF-8"?>
<!-- Created with Inkscape (http://www.inkscape.org/) -->
<svg version="1.1" viewBox="0 0 173.24 34.439" xmlns="http://www.w3.org/2000/svg" xmlns:cc="http://creativecommons.org/ns#" xmlns:dc="http://purl.org/dc/elements/1.1/" xmlns:rdf="http://www.w3.org/1999/02/22-rdf-syntax-ns#">
 <metadata>
  <rdf:RDF>
   <cc:Work rdf:about="">
    <dc:format>image/svg+xml</dc:format>
    <dc:type rdf:resource="http://purl.org/dc/dcmitype/StillImage"/>
    <dc:title/>
    <dc:creator>
     <cc:Agent>
      <dc:title>David Matthew</dc:title>
     </cc:Agent>
    </dc:creator>
   </cc:Work>
  </rdf:RDF>
 </metadata>
 <g transform="matrix(2.6719 0 0 2.6719 -4579.8 -483.07)" enable-background="new" fill="#fff" stroke-width=".0027083px" aria-label="HORSESALES.IE">
  <path d="m1718.4 185.81h-1.157v-2.0963h-2.0146v2.0963h-1.1571v-4.9582h1.1571v2.0725h2.0146v-2.0725h1.157z"/>
  <path d="m1725.4 183.33q0 0.53768-0.1872 1.0005-0.1838 0.46281-0.5207 0.80652-0.3369 0.3403-0.8133 0.53428-0.473 0.19397-1.0515 0.19397t-1.055-0.19397q-0.4764-0.19398-0.8167-0.53428-0.3369-0.34371-0.5241-0.80652-0.1837-0.46282-0.1837-1.0005t0.1837-1.0005q0.1872-0.46281 0.5241-0.80312 0.3403-0.3403 0.8167-0.53428 0.4765-0.19397 1.055-0.19397t1.0515 0.19738q0.4764 0.19397 0.8133 0.53428 0.3369 0.3403 0.5207 0.80312 0.1872 0.46281 0.1872 0.99709zm-1.1775 0q0-0.36753-0.095-0.66019-0.095-0.29607-0.2756-0.50025-0.177-0.20418-0.4356-0.31308t-0.5887-0.1089q-0.3335 0-0.5956 0.1089-0.2586 0.1089-0.439 0.31308-0.1769 0.20418-0.2722 0.50025-0.095 0.29266-0.095 0.66019 0 0.37093 0.095 0.667 0.095 0.29266 0.2722 0.49684 0.1804 0.20419 0.439 0.31308 0.2621 0.1055 0.5956 0.1055 0.3301 0 0.5887-0.1055 0.2586-0.10889 0.4356-0.31308 0.1804-0.20418 0.2756-0.49684 0.095-0.29607 0.095-0.667z"/>
  <path d="m1728.4 183.98v1.8342h-1.1502v-4.9582h1.613q0.5377 0 0.9155 0.1123 0.3811 0.1089 0.6193 0.30627 0.2416 0.19738 0.3505 0.46622t0.1089 0.58533q0 0.24161-0.065 0.45601-0.065 0.21439-0.194 0.39815-0.1259 0.18036-0.3131 0.32329-0.1838 0.14293-0.4254 0.23481 0.1157 0.0579 0.2144 0.14293 0.1021 0.0851 0.177 0.20759l1.0549 1.7253h-1.0413q-0.2893 0-0.4152-0.21779l-0.8235-1.4395q-0.055-0.0953-0.1293-0.13612-0.072-0.0408-0.2042-0.0408zm0-0.79291h0.4628q0.2348 0 0.3982-0.0579 0.1667-0.0613 0.2722-0.16675 0.1055-0.1055 0.1532-0.24502 0.048-0.14293 0.048-0.30628 0-0.32669-0.2144-0.51045-0.211-0.18377-0.6568-0.18377h-0.4628z"/>
  <path d="m1735.8 181.86q-0.051 0.0817-0.1089 0.12251-0.054 0.0408-0.1429 0.0408-0.078 0-0.1701-0.0476-0.089-0.0511-0.2042-0.1123-0.1123-0.0613-0.2586-0.1089-0.1464-0.0511-0.3335-0.0511-0.3233 0-0.4833 0.13953-0.1565 0.13612-0.1565 0.37093 0 0.14973 0.095 0.24842 0.095 0.0987 0.2484 0.17015 0.1565 0.0715 0.3539 0.13272 0.2008 0.0579 0.4084 0.13272 0.2076 0.0715 0.4049 0.17016 0.2008 0.0987 0.354 0.25182 0.1565 0.15314 0.2518 0.37434 0.095 0.21779 0.095 0.52747 0 0.34371-0.1191 0.64318-0.1192 0.29946-0.3472 0.52407-0.2246 0.22119-0.5581 0.35051-0.3301 0.12591-0.752 0.12591-0.2314 0-0.4731-0.0476-0.2382-0.0476-0.4628-0.13272-0.2246-0.0885-0.4219-0.20759-0.1974-0.1191-0.3438-0.26543l0.3404-0.53769q0.037-0.0612 0.1054-0.0987 0.068-0.0374 0.1464-0.0374 0.1021 0 0.2042 0.0647 0.1055 0.0647 0.2348 0.14293 0.1327 0.0783 0.3028 0.14293 0.1702 0.0647 0.4016 0.0647 0.3131 0 0.4866-0.13612 0.1736-0.13952 0.1736-0.43899 0-0.17356-0.095-0.28245-0.095-0.1089-0.2518-0.18037-0.1532-0.0715-0.3505-0.12591-0.1974-0.0545-0.405-0.11911-0.2076-0.0681-0.405-0.16334-0.1973-0.0987-0.3539-0.25523-0.1531-0.15994-0.2484-0.39475-0.095-0.23822-0.095-0.58533 0-0.27905 0.1123-0.54449 0.1123-0.26543 0.3301-0.47302t0.5343-0.3301q0.3165-0.12591 0.7248-0.12591 0.228 0 0.4424 0.0374 0.2178 0.034 0.4118 0.1055 0.194 0.0681 0.3607 0.16675 0.1702 0.0953 0.3029 0.21779z"/>
  <path d="m1741.2 180.85v0.88479h-2.035v1.157h1.5586v0.85076h-1.5586v1.1809h2.035v0.88479h-3.192v-4.9582z"/>
  <path d="m1745.9 181.86q-0.051 0.0817-0.1089 0.12251-0.055 0.0408-0.143 0.0408-0.078 0-0.1701-0.0476-0.089-0.0511-0.2042-0.1123-0.1123-0.0613-0.2586-0.1089-0.1464-0.0511-0.3335-0.0511-0.3233 0-0.4833 0.13953-0.1565 0.13612-0.1565 0.37093 0 0.14973 0.095 0.24842 0.095 0.0987 0.2484 0.17015 0.1566 0.0715 0.3539 0.13272 0.2008 0.0579 0.4084 0.13272 0.2076 0.0715 0.405 0.17016 0.2007 0.0987 0.3539 0.25182 0.1565 0.15314 0.2518 0.37434 0.095 0.21779 0.095 0.52747 0 0.34371-0.1191 0.64318-0.1191 0.29946-0.3471 0.52407-0.2246 0.22119-0.5581 0.35051-0.3301 0.12591-0.7521 0.12591-0.2314 0-0.473-0.0476-0.2382-0.0476-0.4628-0.13272-0.2246-0.0885-0.422-0.20759-0.1974-0.1191-0.3437-0.26543l0.3403-0.53769q0.037-0.0612 0.1055-0.0987 0.068-0.0374 0.1463-0.0374 0.1021 0 0.2042 0.0647 0.1055 0.0647 0.2348 0.14293 0.1327 0.0783 0.3029 0.14293 0.1701 0.0647 0.4015 0.0647 0.3131 0 0.4867-0.13612 0.1735-0.13952 0.1735-0.43899 0-0.17356-0.095-0.28245-0.095-0.1089-0.2518-0.18037-0.1531-0.0715-0.3505-0.12591-0.1974-0.0545-0.405-0.11911-0.2076-0.0681-0.4049-0.16334-0.1974-0.0987-0.354-0.25523-0.1531-0.15994-0.2484-0.39475-0.095-0.23822-0.095-0.58533 0-0.27905 0.1123-0.54449 0.1123-0.26543 0.3301-0.47302t0.5343-0.3301q0.3165-0.12591 0.7249-0.12591 0.228 0 0.4424 0.0374 0.2178 0.034 0.4117 0.1055 0.194 0.0681 0.3608 0.16675 0.1701 0.0953 0.3028 0.21779z"/>
  <path d="m1752.7 185.81h-0.8916q-0.1497 0-0.2484-0.0681-0.095-0.0715-0.1327-0.18036l-0.2927-0.86437h-1.8853l-0.2926 0.86437q-0.034 0.0953-0.1327 0.17356-0.099 0.0749-0.2417 0.0749h-0.8984l1.9194-4.9582h1.1774zm-3.1852-1.8955h1.3544l-0.456-1.3578q-0.044-0.12932-0.1055-0.30287-0.058-0.17696-0.1157-0.38115-0.055 0.20759-0.1123 0.38455-0.058 0.17696-0.1089 0.30627z"/>
  <path d="m1755.6 184.89h1.8377v0.91882h-2.9879v-4.9582h1.1502z"/>
  <path d="m1762.4 180.85v0.88479h-2.0351v1.157h1.5586v0.85076h-1.5586v1.1809h2.0351v0.88479h-3.1921v-4.9582z"/>
  <path d="m1767.1 181.86q-0.051 0.0817-0.1089 0.12251-0.054 0.0408-0.1429 0.0408-0.078 0-0.1702-0.0476-0.088-0.0511-0.2042-0.1123-0.1123-0.0613-0.2586-0.1089-0.1463-0.0511-0.3335-0.0511-0.3233 0-0.4832 0.13953-0.1566 0.13612-0.1566 0.37093 0 0.14973 0.095 0.24842 0.095 0.0987 0.2484 0.17015 0.1566 0.0715 0.354 0.13272 0.2007 0.0579 0.4083 0.13272 0.2076 0.0715 0.405 0.17016 0.2008 0.0987 0.3539 0.25182 0.1565 0.15314 0.2518 0.37434 0.095 0.21779 0.095 0.52747 0 0.34371-0.1191 0.64318-0.1191 0.29946-0.3471 0.52407-0.2246 0.22119-0.5581 0.35051-0.3301 0.12591-0.7521 0.12591-0.2314 0-0.473-0.0476-0.2382-0.0476-0.4628-0.13272-0.2246-0.0885-0.422-0.20759-0.1974-0.1191-0.3437-0.26543l0.3403-0.53769q0.037-0.0612 0.1055-0.0987 0.068-0.0374 0.1463-0.0374 0.1021 0 0.2042 0.0647 0.1055 0.0647 0.2348 0.14293 0.1327 0.0783 0.3029 0.14293 0.1701 0.0647 0.4016 0.0647 0.313 0 0.4866-0.13612 0.1735-0.13952 0.1735-0.43899 0-0.17356-0.095-0.28245-0.095-0.1089-0.2519-0.18037-0.1531-0.0715-0.3505-0.12591-0.1974-0.0545-0.4049-0.11911-0.2076-0.0681-0.405-0.16334-0.1974-0.0987-0.3539-0.25523-0.1532-0.15994-0.2484-0.39475-0.095-0.23822-0.095-0.58533 0-0.27905 0.1123-0.54449 0.1123-0.26543 0.3301-0.47302t0.5342-0.3301q0.3165-0.12591 0.7249-0.12591 0.228 0 0.4424 0.0374 0.2178 0.034 0.4118 0.1055 0.1939 0.0681 0.3607 0.16675 0.1701 0.0953 0.3029 0.21779z"/>
  <path d="m1769.2 185.28q0-0.12251 0.044-0.228 0.048-0.10549 0.1259-0.18376 0.082-0.0783 0.1906-0.12251 0.1089-0.0477 0.2382-0.0477 0.1259 0 0.2348 0.0477 0.1089 0.0442 0.1906 0.12251 0.082 0.0783 0.1259 0.18376 0.048 0.10549 0.048 0.228t-0.048 0.23141q-0.044 0.1055-0.1259 0.18377-0.082 0.0783-0.1906 0.12251-0.1089 0.0442-0.2348 0.0442-0.1293 0-0.2382-0.0442t-0.1906-0.12251q-0.078-0.0783-0.1259-0.18377-0.044-0.1089-0.044-0.23141z"/>
  <path d="m1773.5 185.81h-1.157v-4.9582h1.157z"/>
  <path d="m1778.9 180.85v0.88479h-2.035v1.157h1.5586v0.85076h-1.5586v1.1809h2.035v0.88479h-3.192v-4.9582z"/>
 </g>
 <g transform="matrix(1.7997 0 0 1.7997 .27159 -14.221)" fill="#fff" stroke-width=".014058">
  <path d="m2.445 19.148v0.56576h-0.86553v2.51h-0.71354v-2.51h-0.86553v-0.56576z"/>
  <path d="m6.55 22.224h-0.71776v-1.3004h-1.2497v1.3004h-0.71776v-3.0758h0.71776v1.2856h1.2497v-1.2856h0.71776z"/>
  <path d="m10.158 19.148v0.54887h-1.2624v0.71776h0.96686v0.52776h-0.96686v0.73254h1.2624v0.54887h-1.9802v-3.0758z"/>
  <path d="m15.601 19.148v0.54887h-1.2624v0.77898h1.0513v0.55098h-1.0513v1.197h-0.71776v-3.0758z"/>
  <path d="m18.372 21.66q0.14355 0 0.25544-0.04644 0.114-0.04855 0.19211-0.13722 0.07811-0.08866 0.11822-0.21533 0.04222-0.12877 0.04222-0.29132v-1.8218h0.71354v1.8218q0 0.28288-0.09289 0.51932-0.09078 0.23644-0.26177 0.40743-0.171 0.171-0.41588 0.26599-0.24488 0.095-0.55098 0.095-0.30821 0-0.5531-0.095t-0.41588-0.26599q-0.171-0.171-0.26177-0.40743-0.09078-0.23644-0.09078-0.51932v-1.8218h0.71354v1.8197q0 0.16255 0.04011 0.29132 0.04222 0.12666 0.12033 0.21744 0.07811 0.08866 0.18999 0.13722 0.114 0.04644 0.25755 0.04644z"/>
  <path d="m23.516 19.148v0.56576h-0.86553v2.51h-0.71354v-2.51h-0.86553v-0.56576z"/>
  <path d="m26.215 21.66q0.14355 0 0.25544-0.04644 0.114-0.04855 0.19211-0.13722 0.07811-0.08866 0.11822-0.21533 0.04222-0.12877 0.04222-0.29132v-1.8218h0.71354v1.8218q0 0.28288-0.09289 0.51932-0.09078 0.23644-0.26177 0.40743-0.171 0.171-0.41588 0.26599-0.24488 0.095-0.55098 0.095-0.30821 0-0.5531-0.095t-0.41588-0.26599q-0.171-0.171-0.26177-0.40743-0.09078-0.23644-0.09078-0.51932v-1.8218h0.71354v1.8197q0 0.16255 0.04011 0.29132 0.04222 0.12666 0.12033 0.21744 0.07811 0.08866 0.19 0.13722 0.114 0.04644 0.25755 0.04644z"/>
  <path d="m29.839 21.086v1.1379h-0.71353v-3.0758h1.0006q0.33355 0 0.56787 0.06966 0.23644 0.06755 0.38421 0.19 0.14988 0.12244 0.21744 0.28921 0.06755 0.16677 0.06755 0.3631 0 0.14988-0.04011 0.28288t-0.12033 0.24699q-0.07811 0.11189-0.19422 0.20055-0.114 0.08866-0.26388 0.14566 0.07178 0.03589 0.133 0.08866 0.06333 0.05278 0.10978 0.12877l0.65442 1.0703h-0.64598q-0.17944 0-0.25755-0.13511l-0.51087-0.89297q-0.03378-0.05911-0.08022-0.08444-0.04433-0.02533-0.12666-0.02533zm0-0.49188h0.2871q0.14566 0 0.24699-0.03589 0.10344-0.038 0.16888-0.10344t0.095-0.152q0.02955-0.08866 0.02955-0.18999 0-0.20266-0.133-0.31666-0.13088-0.114-0.40743-0.114h-0.2871z"/>
  <path d="m35.031 19.148v0.54887h-1.2624v0.71776h0.96686v0.52776h-0.96686v0.73254h1.2624v0.54887h-1.9802v-3.0758z"/>
  <path d="m41.53 20.684q0 0.33355-0.11611 0.62065-0.114 0.2871-0.32299 0.50032-0.20899 0.2111-0.50454 0.33143-0.29344 0.12033-0.65231 0.12033-0.35888 0-0.65443-0.12033t-0.50665-0.33143q-0.20899-0.21322-0.3251-0.50032-0.114-0.2871-0.114-0.62065t0.114-0.62065q0.11611-0.2871 0.3251-0.49821 0.2111-0.2111 0.50665-0.33144t0.65443-0.12033q0.35888 0 0.65231 0.12244 0.29555 0.12033 0.50454 0.33144t0.32299 0.49821q0.11611 0.2871 0.11611 0.61854zm-0.73042 0q0-0.22799-0.05911-0.40954-0.05911-0.18366-0.171-0.31032-0.10978-0.12666-0.27022-0.19422-0.16044-0.06755-0.36521-0.06755-0.20688 0-0.36943 0.06755-0.16044 0.06755-0.27232 0.19422-0.10978 0.12666-0.16888 0.31032-0.05911 0.18155-0.05911 0.40954 0 0.2301 0.05911 0.41377 0.05911 0.18155 0.16888 0.30821 0.11188 0.12666 0.27232 0.19422 0.16255 0.06544 0.36943 0.06544 0.20477 0 0.36521-0.06544 0.16044-0.06755 0.27022-0.19422 0.11188-0.12666 0.171-0.30821 0.05911-0.18366 0.05911-0.41377z"/>
  <path d="m44.977 19.148v0.54887h-1.2624v0.77898h1.0513v0.55098h-1.0513v1.197h-0.71776v-3.0758z"/>
  <path d="m50.641 19.148v0.56576h-0.86553v2.51h-0.71353v-2.51h-0.86553v-0.56576z"/>
  <path d="m54.746 22.224h-0.71776v-1.3004h-1.2497v1.3004h-0.71776v-3.0758h0.71776v1.2856h1.2497v-1.2856h0.71776z"/>
  <path d="m59.409 20.684q0 0.33355-0.11611 0.62065-0.114 0.2871-0.32299 0.50032-0.20899 0.2111-0.50454 0.33143-0.29344 0.12033-0.65232 0.12033t-0.65442-0.12033q-0.29555-0.12033-0.50665-0.33143-0.20899-0.21322-0.3251-0.50032-0.114-0.2871-0.114-0.62065t0.114-0.62065q0.11611-0.2871 0.3251-0.49821 0.2111-0.2111 0.50665-0.33144t0.65442-0.12033q0.35888 0 0.65232 0.12244 0.29555 0.12033 0.50454 0.33144 0.20899 0.2111 0.32299 0.49821 0.11611 0.2871 0.11611 0.61854zm-0.73042 0q0-0.22799-0.05911-0.40954-0.05911-0.18366-0.171-0.31032-0.10977-0.12666-0.27021-0.19422-0.16044-0.06755-0.36521-0.06755-0.20688 0-0.36943 0.06755-0.16044 0.06755-0.27232 0.19422-0.10978 0.12666-0.16888 0.31032-0.05911 0.18155-0.05911 0.40954 0 0.2301 0.05911 0.41377 0.05911 0.18155 0.16888 0.30821 0.11189 0.12666 0.27232 0.19422 0.16255 0.06544 0.36943 0.06544 0.20477 0 0.36521-0.06544 0.16044-0.06755 0.27021-0.19422 0.11189-0.12666 0.171-0.30821 0.05911-0.18366 0.05911-0.41377z"/>
  <path d="m61.59 21.086v1.1379h-0.71354v-3.0758h1.0006q0.33355 0 0.56787 0.06966 0.23644 0.06755 0.38421 0.19 0.14988 0.12244 0.21744 0.28921 0.06755 0.16677 0.06755 0.3631 0 0.14988-0.04011 0.28288t-0.12033 0.24699q-0.07811 0.11189-0.19422 0.20055-0.114 0.08866-0.26388 0.14566 0.07178 0.03589 0.133 0.08866 0.06333 0.05278 0.10977 0.12877l0.65443 1.0703h-0.64598q-0.17944 0-0.25755-0.13511l-0.51087-0.89297q-0.03378-0.05911-0.08022-0.08444-0.04433-0.02533-0.12666-0.02533zm0-0.49188h0.2871q0.14566 0 0.24699-0.03589 0.10344-0.038 0.16888-0.10344t0.095-0.152q0.02956-0.08866 0.02956-0.18999 0-0.20266-0.133-0.31666-0.13089-0.114-0.40743-0.114h-0.2871z"/>
  <path d="m67.73 20.684q0 0.33355-0.11611 0.62065-0.114 0.2871-0.32299 0.50032-0.20899 0.2111-0.50454 0.33143-0.29344 0.12033-0.65231 0.12033-0.35888 0-0.65443-0.12033t-0.50665-0.33143q-0.20899-0.21322-0.3251-0.50032-0.114-0.2871-0.114-0.62065t0.114-0.62065q0.11611-0.2871 0.3251-0.49821 0.2111-0.2111 0.50665-0.33144t0.65443-0.12033q0.35888 0 0.65231 0.12244 0.29555 0.12033 0.50454 0.33144t0.32299 0.49821q0.11611 0.2871 0.11611 0.61854zm-0.73042 0q0-0.22799-0.05911-0.40954-0.05911-0.18366-0.171-0.31032-0.10978-0.12666-0.27022-0.19422-0.16044-0.06755-0.36521-0.06755-0.20688 0-0.36943 0.06755-0.16044 0.06755-0.27232 0.19422-0.10978 0.12666-0.16888 0.31032-0.05911 0.18155-0.05911 0.40954 0 0.2301 0.05911 0.41377 0.05911 0.18155 0.16888 0.30821 0.11188 0.12666 0.27232 0.19422 0.16255 0.06544 0.36943 0.06544 0.20477 0 0.36521-0.06544 0.16044-0.06755 0.27022-0.19422 0.11188-0.12666 0.171-0.30821 0.05911-0.18366 0.05911-0.41377z"/>
  <path d="m70.473 21.66q0.14355 0 0.25544-0.04644 0.114-0.04855 0.1921-0.13722 0.0781-0.08866 0.11822-0.21533 0.0422-0.12877 0.0422-0.29132v-1.8218h0.71354v1.8218q0 0.28288-0.0929 0.51932-0.0908 0.23644-0.26177 0.40743-0.17099 0.171-0.41587 0.26599-0.24489 0.095-0.55099 0.095-0.30821 0-0.55309-0.095t-0.41588-0.26599q-0.17099-0.171-0.26177-0.40743-0.09078-0.23644-0.09078-0.51932v-1.8218h0.71353v1.8197q0 0.16255 0.0401 0.29132 0.0422 0.12666 0.12033 0.21744 0.0781 0.08866 0.18999 0.13722 0.114 0.04644 0.25755 0.04644z"/>
  <path d="m74.833 21.708q0.14777 0 0.26177-0.02533t0.21533-0.06755v-0.46654h-0.304q-0.0675 0-0.10555-0.03589-0.038-0.03589-0.038-0.09078v-0.39266h1.0935v1.2983q-0.11822 0.08655-0.247 0.14988-0.12666 0.06122-0.27232 0.10133-0.14355 0.04011-0.30821 0.05911-0.16256 0.019-0.35044 0.019-0.33777 0-0.62487-0.11822-0.2871-0.12033-0.49821-0.32932-0.20899-0.2111-0.32932-0.49821-0.11822-0.28921-0.11822-0.62698 0-0.3441 0.114-0.6312 0.11399-0.28921 0.3251-0.49821 0.21321-0.20899 0.51298-0.3251 0.30188-0.11611 0.67343-0.11611 0.1921 0 0.36099 0.03167 0.16888 0.03167 0.31032 0.08655 0.14355 0.05489 0.26177 0.13088 0.11822 0.076 0.21111 0.16466l-0.20689 0.31455q-0.0296 0.04433-0.0718 0.06967-0.0401 0.02533-0.0887 0.02533-0.0633 0-0.13089-0.04222-0.0844-0.05067-0.16044-0.08655-0.0739-0.038-0.152-0.06122t-0.16466-0.03378q-0.0866-0.01056-0.19421-0.01056-0.20055 0-0.36099 0.07178-0.16044 0.06966-0.27444 0.19844-0.11189 0.12877-0.17311 0.31032-0.0612 0.17944-0.0612 0.4011 0 0.24488 0.0676 0.43488t0.18577 0.32088q0.12033 0.13088 0.28288 0.20055 0.16466 0.06755 0.35888 0.06755z"/>
  <path d="m80.203 22.224h-0.71775v-1.3004h-1.2497v1.3004h-0.71776v-3.0758h0.71776v1.2856h1.2497v-1.2856h0.71775z"/>
  <path d="m81.833 22.224v-3.0758h1.1315q0.31877 0 0.54254 0.05911t0.36521 0.16677 0.20477 0.26177q0.0654 0.15411 0.0654 0.3441 0 0.10344-0.0296 0.20055-0.0296 0.095-0.0929 0.17944t-0.16256 0.15411q-0.0992 0.06755-0.23854 0.11822 0.30399 0.07389 0.44965 0.24066 0.14566 0.16466 0.14566 0.42432 0 0.19633-0.076 0.36521t-0.22377 0.29555q-0.14566 0.12455-0.36099 0.19633-0.21532 0.06966-0.49187 0.06966zm0.71353-1.3046v0.76631h0.50243q0.14144 0 0.23011-0.03589 0.0908-0.03589 0.14144-0.09289 0.0507-0.057 0.0697-0.12877 0.019-0.07178 0.019-0.14566 0-0.08444-0.0232-0.152-0.0211-0.06755-0.076-0.114-0.0528-0.04644-0.14144-0.07178-0.0887-0.02533-0.22377-0.02533zm0-0.4771h0.37155q0.11822 0 0.21321-0.01689 0.095-0.01689 0.16044-0.05911 0.0676-0.04222 0.10133-0.11611 0.0359-0.07389 0.0359-0.18577 0-0.10977-0.0274-0.18155-0.0275-0.07389-0.0844-0.11822-0.057-0.04433-0.14567-0.06333-0.0866-0.019-0.20688-0.019h-0.41799z"/>
  <path d="m86.433 21.086v1.1379h-0.71353v-3.0758h1.0006q0.33355 0 0.56788 0.06966 0.23643 0.06755 0.38421 0.19 0.14988 0.12244 0.21743 0.28921 0.0676 0.16677 0.0676 0.3631 0 0.14988-0.0401 0.28288t-0.12033 0.24699q-0.0781 0.11189-0.19422 0.20055-0.114 0.08866-0.26388 0.14566 0.0718 0.03589 0.133 0.08866 0.0633 0.05278 0.10977 0.12877l0.65443 1.0703h-0.64598q-0.17944 0-0.25755-0.13511l-0.51088-0.89297q-0.0338-0.05911-0.0802-0.08444-0.0443-0.02533-0.12666-0.02533zm0-0.49188h0.2871q0.14567 0 0.247-0.03589 0.10344-0.038 0.16888-0.10344 0.0654-0.06544 0.095-0.152 0.0296-0.08866 0.0296-0.18999 0-0.20266-0.13299-0.31666-0.13089-0.114-0.40744-0.114h-0.2871z"/>
  <path d="m91.633 19.148v0.54887h-1.2624v0.71776h0.96686v0.52776h-0.96686v0.73254h1.2624v0.54887h-1.9802v-3.0758z"/>
  <path d="m95.943 20.684q0 0.33355-0.11611 0.61643-0.11399 0.28077-0.32299 0.48765-0.20899 0.20477-0.50454 0.32088-0.29343 0.114-0.65231 0.114h-1.1949v-3.0758h1.1949q0.35888 0 0.65231 0.11611 0.29555 0.11611 0.50454 0.32088 0.209 0.20477 0.32299 0.48765 0.11611 0.28077 0.11611 0.6122zm-0.73042 0q0-0.22799-0.0591-0.41166-0.0591-0.18366-0.171-0.31032-0.10977-0.12877-0.27021-0.19633-0.16044-0.06966-0.36521-0.06966h-0.4771v1.9781h0.4771q0.20477 0 0.36521-0.06755 0.16044-0.06967 0.27021-0.19633 0.11189-0.12877 0.171-0.31244 0.0591-0.18366 0.0591-0.41377z"/>
 </g>
 <g transform="translate(20.213 -.0045236)" fill="#fff" stroke-width=".014058">
  <g transform="matrix(1.7997 0 0 1.7997 -178.65 -5.6119)">
   <path d="m102.21 22.224h-0.55309q-0.0929 0-0.15411-0.04222-0.0591-0.04433-0.0823-0.11188l-0.18155-0.53621h-1.1695l-0.18155 0.53621q-0.0211 0.05911-0.0823 0.10766-0.0612 0.04644-0.14988 0.04644h-0.55732l1.1906-3.0758h0.73042zm-1.9759-1.1759h0.8402l-0.28288-0.84231q-0.0274-0.08022-0.0654-0.18788-0.0359-0.10977-0.0718-0.23644-0.0338 0.12877-0.0697 0.23855t-0.0676 0.19z"/>
   <path d="m103.95 19.148q0.0464 0 0.0781 0.0042t0.057 0.01689q0.0253 0.01056 0.0486 0.03167 0.0232 0.02111 0.0528 0.057l1.4608 1.8472q-8e-3 -0.08866-0.0127-0.171-4e-3 -0.08444-4e-3 -0.15833v-1.6276h0.62909v3.0758h-0.37154q-0.0823 0-0.13933-0.02533-0.057-0.02533-0.10977-0.09289l-1.4503-1.8324q6e-3 0.08022 0.0106 0.15833 4e-3 0.076 4e-3 0.14355v1.6487h-0.62909v-3.0758h0.37577z"/>
   <path d="m110.68 20.684q0 0.33355-0.11611 0.61643-0.114 0.28077-0.32299 0.48765-0.209 0.20477-0.50454 0.32088-0.29344 0.114-0.65232 0.114h-1.1948v-3.0758h1.1948q0.35888 0 0.65232 0.11611 0.29554 0.11611 0.50454 0.32088 0.20899 0.20477 0.32299 0.48765 0.11611 0.28077 0.11611 0.6122zm-0.73043 0q0-0.22799-0.0591-0.41166-0.0591-0.18366-0.17099-0.31032-0.10978-0.12877-0.27021-0.19633-0.16044-0.06966-0.36522-0.06966h-0.47709v1.9781h0.47709q0.20478 0 0.36522-0.06755 0.16043-0.06967 0.27021-0.19633 0.11189-0.12877 0.17099-0.31244t0.0591-0.41377z"/>
  </g>
  <g transform="matrix(1.7997 0 0 1.7997 -178.65 -5.6119)">
   <path d="m115.8 19.772q-0.0317 0.05066-0.0676 0.076-0.0338 0.02533-0.0887 0.02533-0.0486 0-0.10556-0.02956-0.0549-0.03167-0.12666-0.06966-0.0697-0.038-0.16044-0.06755-0.0908-0.03167-0.20688-0.03167-0.20055 0-0.29977 0.08655-0.0971 0.08444-0.0971 0.2301 0 0.09289 0.0591 0.15411t0.15411 0.10555q0.0971 0.04433 0.21955 0.08233 0.12455 0.03589 0.25332 0.08233 0.12878 0.04433 0.25122 0.10555 0.12455 0.06122 0.21955 0.15622 0.0971 0.095 0.15621 0.23222 0.0591 0.13511 0.0591 0.32721 0 0.21322-0.0739 0.39899t-0.21533 0.3251q-0.13933 0.13722-0.34621 0.21744-0.20477 0.07811-0.46654 0.07811-0.14356 0-0.29344-0.02955-0.14777-0.02956-0.2871-0.08233-0.13933-0.05489-0.26177-0.12877-0.12244-0.07389-0.21322-0.16466l0.21111-0.33355q0.0232-0.038 0.0654-0.06122t0.0908-0.02322q0.0633 0 0.12667 0.04011 0.0654 0.04011 0.14566 0.08866 0.0823 0.04855 0.18788 0.08866 0.10556 0.04011 0.24911 0.04011 0.19421 0 0.30188-0.08444 0.10766-0.08655 0.10766-0.27233 0-0.10766-0.0591-0.17522-0.0591-0.06755-0.15622-0.11188-0.095-0.04433-0.21744-0.07811t-0.25121-0.07389q-0.12877-0.04222-0.25121-0.10133-0.12245-0.06122-0.21955-0.15833-0.095-0.09922-0.15411-0.24488-0.0591-0.14777-0.0591-0.3631 0-0.17311 0.0697-0.33777t0.20478-0.29344q0.1351-0.12877 0.33143-0.20477 0.19633-0.07811 0.44965-0.07811 0.14145 0 0.27444 0.02322 0.13511 0.02111 0.25544 0.06544 0.12033 0.04222 0.22377 0.10344 0.10555 0.05911 0.18788 0.13511z"/>
   <path d="m118.21 21.196v1.0281h-0.71354v-3.0758h1.0851q0.3251 0 0.55732 0.07811 0.23432 0.076 0.38421 0.2111 0.15199 0.13511 0.22377 0.31877 0.0718 0.18366 0.0718 0.39688 0 0.2301-0.0739 0.42221-0.0739 0.1921-0.22588 0.32932-0.152 0.13722-0.38633 0.21533-0.23221 0.076-0.55098 0.076zm0-0.53832h0.37154q0.27866 0 0.4011-0.133t0.12244-0.37154q0-0.10555-0.0317-0.19211-0.0317-0.08655-0.0971-0.14777-0.0633-0.06333-0.16255-0.09711-0.0971-0.03378-0.23222-0.03378h-0.37154z"/>
   <path d="m124.35 20.684q0 0.33355-0.11611 0.62065-0.114 0.2871-0.32299 0.50032-0.209 0.2111-0.50454 0.33143-0.29344 0.12033-0.65232 0.12033t-0.65442-0.12033q-0.29555-0.12033-0.50665-0.33143-0.209-0.21322-0.32511-0.50032-0.11399-0.2871-0.11399-0.62065t0.11399-0.62065q0.11611-0.2871 0.32511-0.49821 0.2111-0.2111 0.50665-0.33144 0.29554-0.12033 0.65442-0.12033t0.65232 0.12244q0.29554 0.12033 0.50454 0.33144 0.20899 0.2111 0.32299 0.49821 0.11611 0.2871 0.11611 0.61854zm-0.73043 0q0-0.22799-0.0591-0.40954-0.0591-0.18366-0.17099-0.31032-0.10978-0.12666-0.27022-0.19422-0.16043-0.06755-0.36521-0.06755-0.20688 0-0.36943 0.06755-0.16044 0.06755-0.27233 0.19422-0.10977 0.12666-0.16888 0.31032-0.0591 0.18155-0.0591 0.40954 0 0.2301 0.0591 0.41377 0.0591 0.18155 0.16888 0.30821 0.11189 0.12666 0.27233 0.19422 0.16255 0.06544 0.36943 0.06544 0.20478 0 0.36521-0.06544 0.16044-0.06755 0.27022-0.19422 0.11188-0.12666 0.17099-0.30821 0.0591-0.18366 0.0591-0.41377z"/>
   <path d="m126.53 21.086v1.1379h-0.71354v-3.0758h1.0006q0.33355 0 0.56787 0.06966 0.23644 0.06755 0.38422 0.19 0.14988 0.12244 0.21743 0.28921 0.0676 0.16677 0.0676 0.3631 0 0.14988-0.0401 0.28288t-0.12033 0.24699q-0.0781 0.11189-0.19422 0.20055-0.114 0.08866-0.26388 0.14566 0.0718 0.03589 0.133 0.08866 0.0633 0.05278 0.10977 0.12877l0.65443 1.0703h-0.64599q-0.17943 0-0.25754-0.13511l-0.51088-0.89297q-0.0338-0.05911-0.0802-0.08444-0.0443-0.02533-0.12666-0.02533zm0-0.49188h0.2871q0.14566 0 0.24699-0.03589 0.10345-0.038 0.16889-0.10344 0.0654-0.06544 0.095-0.152 0.0296-0.08866 0.0296-0.18999 0-0.20266-0.133-0.31666-0.13088-0.114-0.40743-0.114h-0.2871z"/>
   <path d="m131.85 19.148v0.56576h-0.86553v2.51h-0.71354v-2.51h-0.86553v-0.56576z"/>
  </g>
  <g transform="matrix(1.7997 0 0 1.7997 -178.65 -5.6119)">
   <path d="m137.9 22.224h-0.71776v-1.3004h-1.2497v1.3004h-0.71776v-3.0758h0.71776v1.2856h1.2497v-1.2856h0.71776z"/>
   <path d="m142.56 20.684q0 0.33355-0.1161 0.62065-0.114 0.2871-0.32299 0.50032-0.209 0.2111-0.50454 0.33143-0.29344 0.12033-0.65232 0.12033t-0.65442-0.12033q-0.29555-0.12033-0.50666-0.33143-0.20899-0.21322-0.3251-0.50032-0.11399-0.2871-0.11399-0.62065t0.11399-0.62065q0.11611-0.2871 0.3251-0.49821 0.21111-0.2111 0.50666-0.33144 0.29554-0.12033 0.65442-0.12033t0.65232 0.12244q0.29554 0.12033 0.50454 0.33144 0.20899 0.2111 0.32299 0.49821 0.1161 0.2871 0.1161 0.61854zm-0.73042 0q0-0.22799-0.0591-0.40954-0.0591-0.18366-0.17099-0.31032-0.10978-0.12666-0.27022-0.19422-0.16044-0.06755-0.36521-0.06755-0.20688 0-0.36943 0.06755-0.16044 0.06755-0.27233 0.19422-0.10977 0.12666-0.16888 0.31032-0.0591 0.18155-0.0591 0.40954 0 0.2301 0.0591 0.41377 0.0591 0.18155 0.16888 0.30821 0.11189 0.12666 0.27233 0.19422 0.16255 0.06544 0.36943 0.06544 0.20477 0 0.36521-0.06544 0.16044-0.06755 0.27022-0.19422 0.11188-0.12666 0.17099-0.30821 0.0591-0.18366 0.0591-0.41377z"/>
   <path d="m144.74 21.086v1.1379h-0.71354v-3.0758h1.0006q0.33355 0 0.56787 0.06966 0.23644 0.06755 0.38421 0.19 0.14989 0.12244 0.21744 0.28921 0.0675 0.16677 0.0675 0.3631 0 0.14988-0.0401 0.28288t-0.12033 0.24699q-0.0781 0.11189-0.19422 0.20055-0.114 0.08866-0.26388 0.14566 0.0718 0.03589 0.13299 0.08866 0.0633 0.05278 0.10978 0.12877l0.65442 1.0703h-0.64598q-0.17944 0-0.25755-0.13511l-0.51087-0.89297q-0.0338-0.05911-0.0802-0.08444-0.0443-0.02533-0.12666-0.02533zm0-0.49188h0.2871q0.14566 0 0.24699-0.03589 0.10344-0.038 0.16889-0.10344 0.0654-0.06544 0.095-0.152 0.0296-0.08866 0.0296-0.18999 0-0.20266-0.133-0.31666-0.13088-0.114-0.40743-0.114h-0.2871z"/>
   <path d="m149.67 19.772q-0.0317 0.05066-0.0676 0.076-0.0338 0.02533-0.0887 0.02533-0.0486 0-0.10555-0.02956-0.0549-0.03167-0.12666-0.06966-0.0697-0.038-0.16044-0.06755-0.0908-0.03167-0.20688-0.03167-0.20055 0-0.29977 0.08655-0.0971 0.08444-0.0971 0.2301 0 0.09289 0.0591 0.15411t0.1541 0.10555q0.0971 0.04433 0.21955 0.08233 0.12456 0.03589 0.25333 0.08233 0.12877 0.04433 0.25121 0.10555 0.12456 0.06122 0.21955 0.15622 0.0971 0.095 0.15622 0.23222 0.0591 0.13511 0.0591 0.32721 0 0.21322-0.0739 0.39899t-0.21532 0.3251q-0.13933 0.13722-0.34622 0.21744-0.20477 0.07811-0.46654 0.07811-0.14355 0-0.29343-0.02955-0.14778-0.02956-0.28711-0.08233-0.13933-0.05489-0.26177-0.12877-0.12244-0.07389-0.21321-0.16466l0.2111-0.33355q0.0232-0.038 0.0654-0.06122t0.0908-0.02322q0.0633 0 0.12666 0.04011 0.0654 0.04011 0.14567 0.08866 0.0823 0.04855 0.18788 0.08866 0.10555 0.04011 0.2491 0.04011 0.19422 0 0.30188-0.08444 0.10767-0.08655 0.10767-0.27233 0-0.10766-0.0591-0.17522-0.0591-0.06755-0.15622-0.11188-0.095-0.04433-0.21744-0.07811t-0.25121-0.07389q-0.12878-0.04222-0.25122-0.10133-0.12244-0.06122-0.21955-0.15833-0.095-0.09922-0.1541-0.24488-0.0591-0.14777-0.0591-0.3631 0-0.17311 0.0697-0.33777t0.20477-0.29344q0.13511-0.12877 0.33144-0.20477 0.19633-0.07811 0.44965-0.07811 0.14144 0 0.27444 0.02322 0.13511 0.02111 0.25544 0.06544 0.12033 0.04222 0.22377 0.10344 0.10555 0.05911 0.18788 0.13511z"/>
   <path d="m153.35 19.148v0.54887h-1.2624v0.71776h0.96686v0.52776h-0.96686v0.73254h1.2624v0.54887h-1.9802v-3.0758z"/>
  </g>
  <g transform="matrix(1.7997 0 0 1.7997 -178.65 -5.6119)">
   <path d="m158.52 19.772q-0.0317 0.05066-0.0676 0.076-0.0338 0.02533-0.0887 0.02533-0.0486 0-0.10555-0.02956-0.0549-0.03167-0.12666-0.06966-0.0697-0.038-0.16044-0.06755-0.0908-0.03167-0.20689-0.03167-0.20055 0-0.29977 0.08655-0.0971 0.08444-0.0971 0.2301 0 0.09289 0.0591 0.15411t0.1541 0.10555q0.0971 0.04433 0.21955 0.08233 0.12455 0.03589 0.25333 0.08233 0.12877 0.04433 0.25121 0.10555 0.12455 0.06122 0.21955 0.15622 0.0971 0.095 0.15622 0.23222 0.0591 0.13511 0.0591 0.32721 0 0.21322-0.0739 0.39899t-0.21533 0.3251q-0.13933 0.13722-0.34621 0.21744-0.20477 0.07811-0.46654 0.07811-0.14355 0-0.29344-0.02955-0.14777-0.02956-0.2871-0.08233-0.13933-0.05489-0.26177-0.12877-0.12244-0.07389-0.21321-0.16466l0.2111-0.33355q0.0232-0.038 0.0654-0.06122t0.0908-0.02322q0.0633 0 0.12666 0.04011 0.0654 0.04011 0.14566 0.08866 0.0823 0.04855 0.18789 0.08866 0.10555 0.04011 0.2491 0.04011 0.19422 0 0.30188-0.08444 0.10766-0.08655 0.10766-0.27233 0-0.10766-0.0591-0.17522-0.0591-0.06755-0.15621-0.11188-0.095-0.04433-0.21744-0.07811t-0.25122-0.07389q-0.12877-0.04222-0.25121-0.10133-0.12244-0.06122-0.21955-0.15833-0.095-0.09922-0.15411-0.24488-0.0591-0.14777-0.0591-0.3631 0-0.17311 0.0697-0.33777t0.20477-0.29344q0.13511-0.12877 0.33144-0.20477 0.19632-0.07811 0.44965-0.07811 0.14144 0 0.27444 0.02322 0.1351 0.02111 0.25543 0.06544 0.12033 0.04222 0.22377 0.10344 0.10556 0.05911 0.18789 0.13511z"/>
   <path d="m163.09 22.224h-0.55309q-0.0929 0-0.15411-0.04222-0.0591-0.04433-0.0823-0.11188l-0.18155-0.53621h-1.1695l-0.18155 0.53621q-0.0211 0.05911-0.0823 0.10766-0.0612 0.04644-0.14989 0.04644h-0.55732l1.1906-3.0758h0.73042zm-1.9759-1.1759h0.8402l-0.28288-0.84231q-0.0274-0.08022-0.0654-0.18788-0.0359-0.10977-0.0718-0.23644-0.0338 0.12877-0.0697 0.23855t-0.0676 0.19z"/>
   <path d="m165.17 21.654h1.14v0.56998h-1.8535v-3.0758h0.71353z"/>
   <path d="m169.75 19.148v0.54887h-1.2624v0.71776h0.96686v0.52776h-0.96686v0.73254h1.2624v0.54887h-1.9802v-3.0758z"/>
   <path d="m172.99 19.772q-0.0317 0.05066-0.0676 0.076-0.0338 0.02533-0.0887 0.02533-0.0486 0-0.10555-0.02956-0.0549-0.03167-0.12666-0.06966-0.0697-0.038-0.16044-0.06755-0.0908-0.03167-0.20689-0.03167-0.20055 0-0.29977 0.08655-0.0971 0.08444-0.0971 0.2301 0 0.09289 0.0591 0.15411t0.15411 0.10555q0.0971 0.04433 0.21955 0.08233 0.12455 0.03589 0.25333 0.08233 0.12877 0.04433 0.25121 0.10555 0.12455 0.06122 0.21955 0.15622 0.0971 0.095 0.15622 0.23222 0.0591 0.13511 0.0591 0.32721 0 0.21322-0.0739 0.39899t-0.21533 0.3251q-0.13933 0.13722-0.34621 0.21744-0.20477 0.07811-0.46654 0.07811-0.14355 0-0.29344-0.02955-0.14777-0.02956-0.2871-0.08233-0.13933-0.05489-0.26177-0.12877-0.12244-0.07389-0.21321-0.16466l0.2111-0.33355q0.0232-0.038 0.0654-0.06122t0.0908-0.02322q0.0633 0 0.12666 0.04011 0.0654 0.04011 0.14566 0.08866 0.0823 0.04855 0.18789 0.08866 0.10555 0.04011 0.2491 0.04011 0.19422 0 0.30188-0.08444 0.10766-0.08655 0.10766-0.27233 0-0.10766-0.0591-0.17522-0.0591-0.06755-0.15621-0.11188-0.095-0.04433-0.21744-0.07811t-0.25122-0.07389q-0.12877-0.04222-0.25121-0.10133-0.12244-0.06122-0.21955-0.15833-0.095-0.09922-0.15411-0.24488-0.0591-0.14777-0.0591-0.3631 0-0.17311 0.0697-0.33777t0.20477-0.29344q0.13511-0.12877 0.33144-0.20477 0.19632-0.07811 0.44965-0.07811 0.14144 0 0.27444 0.02322 0.1351 0.02111 0.25543 0.06544 0.12033 0.04222 0.22377 0.10344 0.10556 0.05911 0.18789 0.13511z"/>
  </g>
 </g>
 <g fill="#fff">
  <rect y="16.485" width="173.21" height=".74651" enable-background="new" opacity=".98"/>
  <rect x=".024506" y="31.238" width="15.915" height=".74651" enable-background="new" opacity=".98"/>
  <rect x="157.32" y="31.238" width="15.915" height=".74651" enable-background="new" opacity=".98"/>
 </g>
</svg>
