<?xml version="1.0" encoding="UTF-8"?>
<!-- Created with Inkscape (http://www.inkscape.org/) -->
<svg version="1.1" viewBox="0 0 160.54 24.767" xmlns="http://www.w3.org/2000/svg" xmlns:cc="http://creativecommons.org/ns#" xmlns:dc="http://purl.org/dc/elements/1.1/" xmlns:rdf="http://www.w3.org/1999/02/22-rdf-syntax-ns#">
 <metadata>
  <rdf:RDF>
   <cc:Work rdf:about="">
    <dc:format>image/svg+xml</dc:format>
    <dc:type rdf:resource="http://purl.org/dc/dcmitype/StillImage"/>
    <dc:title/>
   </cc:Work>
  </rdf:RDF>
 </metadata>
 <g transform="translate(-128.38 139.47)" fill="#fff">
  <path d="m139.09-127.07h-2.8639v-5.1887h-4.9866v5.1887h-2.8639v-12.273h2.8639v5.1298h4.9866v-5.1298h2.8639z"/>
  <path d="m156.41-133.21q0 1.3309-0.46327 2.4764-0.45486 1.1456-1.2888 1.9963-0.8339 0.84232-2.0132 1.3224-1.1708 0.48012-2.6028 0.48012t-2.6112-0.48012q-1.1793-0.48013-2.0216-1.3224-0.8339-0.85075-1.2972-1.9963-0.45485-1.1456-0.45485-2.4764t0.45485-2.4764q0.46328-1.1456 1.2972-1.9879 0.84232-0.84232 2.0216-1.3224 1.1792-0.48012 2.6112-0.48012t2.6028 0.48854q1.1792 0.48013 2.0132 1.3224t1.2888 1.9879q0.46327 1.1456 0.46327 2.468zm-2.9144 0q0-0.90971-0.23586-1.6341-0.23585-0.73282-0.68228-1.2382-0.43801-0.50539-1.0782-0.77494-0.64017-0.26954-1.4572-0.26954-0.82548 0-1.4741 0.26954-0.64016 0.26955-1.0866 0.77494-0.43801 0.50539-0.67386 1.2382-0.23585 0.7244-0.23585 1.6341 0 0.91813 0.23585 1.651 0.23585 0.72439 0.67386 1.2298 0.44643 0.50539 1.0866 0.77494 0.64859 0.26112 1.4741 0.26112 0.81705 0 1.4572-0.26112 0.64016-0.26955 1.0782-0.77494 0.44643-0.5054 0.68228-1.2298 0.23586-0.73283 0.23586-1.651z"/>
  <path d="m163.82-131.61v4.5401h-2.847v-12.273h3.9926q1.3309 0 2.2658 0.27796 0.9434 0.26955 1.533 0.7581 0.59805 0.48854 0.86759 1.154 0.26954 0.66543 0.26954 1.4488 0 0.59805-0.16004 1.1287-0.16004 0.53066-0.48012 0.98552-0.31166 0.44643-0.77494 0.8002-0.45485 0.35378-1.0529 0.58121 0.28639 0.14319 0.53066 0.35377 0.2527 0.21058 0.43801 0.51382l2.6112 4.2706h-2.5775q-0.71597 0-1.0276-0.53909l-2.0384-3.563q-0.13478-0.23585-0.32009-0.33693-0.17689-0.10107-0.50539-0.10107zm0-1.9626h1.1456q0.5812 0 0.98552-0.14319 0.41274-0.15162 0.67386-0.41274t0.37904-0.60647q0.11793-0.35378 0.11793-0.75809 0-0.80863-0.53067-1.2635-0.52224-0.45485-1.6257-0.45485h-1.1456z"/>
  <path d="m182.18-136.84q-0.12635 0.20215-0.26955 0.30323-0.13477 0.10108-0.35377 0.10108-0.19374 0-0.42116-0.11792-0.21901-0.12635-0.5054-0.27797-0.27796-0.15162-0.64016-0.26955-0.3622-0.12634-0.82548-0.12634-0.80021 0-1.1961 0.34535-0.38747 0.33693-0.38747 0.91813 0 0.37062 0.23585 0.6149 0.23585 0.24427 0.6149 0.42116 0.38747 0.17689 0.87601 0.32851 0.49698 0.14319 1.0108 0.3285 0.51382 0.17689 1.0024 0.42116 0.49697 0.24428 0.87601 0.62332 0.38747 0.37905 0.62332 0.92656 0.23585 0.53908 0.23585 1.3056 0 0.85075-0.29481 1.592t-0.85917 1.2972q-0.55593 0.54751-1.3814 0.86759-0.81705 0.31166-1.8615 0.31166-0.57278 0-1.1708-0.11792-0.58963-0.11793-1.1456-0.32851-0.55594-0.219-1.0445-0.51382-0.48855-0.29481-0.85075-0.65701l0.84232-1.3309q0.0927-0.15162 0.26112-0.24427 0.16847-0.0927 0.3622-0.0927 0.2527 0 0.5054 0.16004 0.26112 0.16004 0.5812 0.35378 0.3285 0.19373 0.74967 0.35377 0.42116 0.16004 0.99394 0.16004 0.77494 0 1.2045-0.33693 0.42959-0.34535 0.42959-1.0866 0-0.42959-0.23586-0.69913-0.23585-0.26954-0.62331-0.44643-0.37905-0.17689-0.8676-0.31166t-1.0024-0.29481q-0.51382-0.16847-1.0024-0.40432-0.48854-0.24427-0.87601-0.63174-0.37905-0.39589-0.6149-0.9771-0.23585-0.58962-0.23585-1.4488 0-0.69071 0.27797-1.3477 0.27796-0.65701 0.81705-1.1708t1.3224-0.81705q0.78336-0.31166 1.7942-0.31166 0.56435 0 1.095 0.0926 0.53908 0.0842 1.0192 0.26112 0.48012 0.16847 0.89286 0.41274 0.42116 0.23585 0.74967 0.53909z"/>
  <path d="m195.58-139.34v2.19h-5.0371v2.8639h3.8578v2.1058h-3.8578v2.9229h5.0371v2.19h-7.901v-12.273z"/>
  <path d="m207.21-136.84q-0.12635 0.20215-0.26955 0.30323-0.13477 0.10108-0.35377 0.10108-0.19374 0-0.42116-0.11792-0.21901-0.12635-0.5054-0.27797-0.27796-0.15162-0.64016-0.26955-0.3622-0.12634-0.82548-0.12634-0.80021 0-1.1961 0.34535-0.38747 0.33693-0.38747 0.91813 0 0.37062 0.23585 0.6149 0.23585 0.24427 0.6149 0.42116 0.38747 0.17689 0.87602 0.32851 0.49697 0.14319 1.0108 0.3285 0.51382 0.17689 1.0024 0.42116 0.49697 0.24428 0.87601 0.62332 0.38747 0.37905 0.62332 0.92656 0.23585 0.53908 0.23585 1.3056 0 0.85075-0.29481 1.592t-0.85917 1.2972q-0.55593 0.54751-1.3814 0.86759-0.81705 0.31166-1.8615 0.31166-0.57278 0-1.1708-0.11792-0.58963-0.11793-1.1456-0.32851-0.55594-0.219-1.0445-0.51382-0.48855-0.29481-0.85075-0.65701l0.84232-1.3309q0.0927-0.15162 0.26112-0.24427 0.16847-0.0927 0.3622-0.0927 0.2527 0 0.5054 0.16004 0.26112 0.16004 0.5812 0.35378 0.32851 0.19373 0.74967 0.35377t0.99394 0.16004q0.77494 0 1.2045-0.33693 0.42959-0.34535 0.42959-1.0866 0-0.42959-0.23585-0.69913t-0.62332-0.44643q-0.37905-0.17689-0.8676-0.31166-0.48854-0.13477-1.0024-0.29481-0.51382-0.16847-1.0024-0.40432-0.48854-0.24427-0.87601-0.63174-0.37905-0.39589-0.6149-0.9771-0.23585-0.58962-0.23585-1.4488 0-0.69071 0.27797-1.3477 0.27796-0.65701 0.81705-1.1708t1.3224-0.81705q0.78336-0.31166 1.7942-0.31166 0.56435 0 1.095 0.0926 0.53909 0.0842 1.0192 0.26112 0.48012 0.16847 0.89286 0.41274 0.42116 0.23585 0.74967 0.53909z"/>
  <path d="m224.13-127.07h-2.2069q-0.37062 0-0.61489-0.16847-0.23585-0.17688-0.32851-0.44643l-0.7244-2.1395h-4.6665l-0.7244 2.1395q-0.0842 0.23585-0.3285 0.42959-0.24428 0.18531-0.59805 0.18531h-2.2237l4.7507-12.273h2.9144zm-7.8842-4.6917h3.3524l-1.1287-3.3609q-0.1095-0.32008-0.26112-0.74967-0.1432-0.43801-0.28639-0.9434-0.13477 0.51382-0.27797 0.95182-0.14319 0.43801-0.26954 0.75809z"/>
  <path d="m231.14-129.34h4.5485v2.2743h-7.3956v-12.273h2.8471z"/>
  <path d="m248.13-139.34v2.19h-5.0371v2.8639h3.8578v2.1058h-3.8578v2.9229h5.0371v2.19h-7.901v-12.273z"/>
  <path d="m259.77-136.84q-0.12635 0.20215-0.26954 0.30323-0.13478 0.10108-0.35378 0.10108-0.19373 0-0.42116-0.11792-0.21901-0.12635-0.5054-0.27797-0.27796-0.15162-0.64016-0.26955-0.3622-0.12634-0.82548-0.12634-0.8002 0-1.1961 0.34535-0.38747 0.33693-0.38747 0.91813 0 0.37062 0.23585 0.6149 0.23586 0.24427 0.6149 0.42116 0.38747 0.17689 0.87602 0.32851 0.49697 0.14319 1.0108 0.3285 0.51381 0.17689 1.0024 0.42116 0.49697 0.24428 0.87602 0.62332 0.38746 0.37905 0.62332 0.92656 0.23585 0.53908 0.23585 1.3056 0 0.85075-0.29482 1.592-0.29481 0.74124-0.85917 1.2972-0.55593 0.54751-1.3814 0.86759-0.81705 0.31166-1.8615 0.31166-0.57278 0-1.1708-0.11792-0.58963-0.11793-1.1456-0.32851-0.55593-0.219-1.0445-0.51382-0.48855-0.29481-0.85075-0.65701l0.84233-1.3309q0.0926-0.15162 0.26112-0.24427 0.16846-0.0927 0.36219-0.0927 0.2527 0 0.5054 0.16004 0.26112 0.16004 0.5812 0.35378 0.32851 0.19373 0.74967 0.35377t0.99394 0.16004q0.77494 0 1.2045-0.33693 0.42959-0.34535 0.42959-1.0866 0-0.42959-0.23585-0.69913t-0.62332-0.44643q-0.37905-0.17689-0.86759-0.31166-0.48855-0.13477-1.0024-0.29481-0.51382-0.16847-1.0024-0.40432-0.48855-0.24427-0.87602-0.63174-0.37905-0.39589-0.6149-0.9771-0.23585-0.58962-0.23585-1.4488 0-0.69071 0.27797-1.3477t0.81705-1.1708q0.53909-0.51382 1.3224-0.81705 0.78336-0.31166 1.7942-0.31166 0.56436 0 1.095 0.0926 0.53909 0.0842 1.0192 0.26112 0.48013 0.16847 0.89286 0.41274 0.42117 0.23585 0.74967 0.53909z"/>
  <path d="m264.75-128.39q0-0.30324 0.10951-0.56436 0.11792-0.26112 0.31166-0.45485 0.20215-0.19373 0.4717-0.30324 0.26954-0.11792 0.58962-0.11792 0.31166 0 0.58121 0.11792 0.26954 0.10951 0.4717 0.30324 0.20215 0.19373 0.31166 0.45485 0.11792 0.26112 0.11792 0.56436t-0.11792 0.57278q-0.10951 0.26112-0.31166 0.45486-0.20216 0.19373-0.4717 0.30323-0.26955 0.1095-0.58121 0.1095-0.32008 0-0.58962-0.1095-0.26955-0.1095-0.4717-0.30323-0.19374-0.19374-0.31166-0.45486-0.10951-0.26954-0.10951-0.57278z"/>
  <path d="m275.54-127.07h-2.8639v-12.273h2.8639z"/>
  <path d="m288.91-139.34v2.19h-5.0371v2.8639h3.8578v2.1058h-3.8578v2.9229h5.0371v2.19h-7.901v-12.273z"/>
  <path d="m282.72-124.65v2.2872l6.1936-2.2872z" enable-background="new" opacity=".453"/>
  <rect x="134.57" y="-124.65" width="148.15" height="9.9469" opacity=".15"/>
  <path d="m142.83-121.85v0.67856h-1.0381v3.0105h-0.8558v-3.0105h-1.0381v-0.67856z"/>
  <path d="m148.78-118.16h-0.86086v-1.5597h-1.4989v1.5597h-0.86086v-3.689h0.86086v1.542h1.4989v-1.542h0.86086z"/>
  <path d="m154.13-121.85v0.65831h-1.5141v0.86086h1.1596v0.63298h-1.1596v0.87859h1.5141v0.6583h-2.375v-3.689z"/>
  <path d="m163.91-121.85v0.65831h-1.5141v0.93429h1.2609v0.66083h-1.2609v1.4356h-0.86086v-3.689z"/>
  <path d="m168.26-118.84q0.17217 0 0.30636-0.0557 0.13673-0.0582 0.23041-0.16457 0.0937-0.10635 0.14179-0.25826 0.0506-0.15445 0.0506-0.34941v-2.1851h0.85579v2.1851q0 0.33928-0.1114 0.62286-0.10887 0.28357-0.31396 0.48866t-0.49879 0.31903q-0.29371 0.11393-0.66084 0.11393-0.36966 0-0.66337-0.11393-0.2937-0.11394-0.49879-0.31903t-0.31396-0.48866q-0.10888-0.28358-0.10888-0.62286v-2.1851h0.8558v2.1825q0 0.19496 0.0481 0.34941 0.0506 0.15191 0.14432 0.26079 0.0937 0.10634 0.22787 0.16457 0.13673 0.0557 0.3089 0.0557z"/>
  <path d="m175.46-121.85v0.67856h-1.0381v3.0105h-0.8558v-3.0105h-1.0381v-0.67856z"/>
  <path d="m179.73-118.84q0.17217 0 0.30637-0.0557 0.13672-0.0582 0.2304-0.16457 0.0937-0.10635 0.14179-0.25826 0.0506-0.15445 0.0506-0.34941v-2.1851h0.8558v2.1851q0 0.33928-0.11141 0.62286-0.10887 0.28357-0.31396 0.48866t-0.49879 0.31903q-0.29371 0.11393-0.66084 0.11393-0.36966 0-0.66337-0.11393-0.2937-0.11394-0.49879-0.31903t-0.31396-0.48866q-0.10887-0.28358-0.10887-0.62286v-2.1851h0.85579v2.1825q0 0.19496 0.0481 0.34941 0.0506 0.15191 0.14432 0.26079 0.0937 0.10634 0.22787 0.16457 0.13673 0.0557 0.3089 0.0557z"/>
  <path d="m185.1-119.52v1.3647h-0.85579v-3.689h1.2001q0.40004 0 0.68109 0.0836 0.28358 0.081 0.46081 0.22787 0.17977 0.14686 0.26079 0.34688 0.081 0.20002 0.081 0.43549 0 0.17977-0.0481 0.33928-0.0481 0.15952-0.14432 0.29624-0.0937 0.13419-0.23294 0.24053-0.13673 0.10635-0.31649 0.17471 0.0861 0.043 0.15951 0.10634 0.076 0.0633 0.13166 0.15445l0.7849 1.2837h-0.77477q-0.21522 0-0.3089-0.16204l-0.61273-1.071q-0.0405-0.0709-0.0962-0.10128-0.0532-0.0304-0.15192-0.0304zm0-0.58995h0.34435q0.1747 0 0.29623-0.043 0.12407-0.0456 0.20256-0.12406 0.0785-0.0785 0.11394-0.1823 0.0354-0.10635 0.0354-0.22788 0-0.24306-0.15951-0.37979-0.15698-0.13672-0.48866-0.13672h-0.34435z"/>
  <path d="m192.36-121.85v0.65831h-1.5141v0.86086h1.1596v0.63298h-1.1596v0.87859h1.5141v0.6583h-2.375v-3.689z"/>
  <path d="m203.4-120.01q0 0.40004-0.13925 0.74439-0.13673 0.34434-0.38739 0.60007-0.25066 0.25319-0.60513 0.39751-0.35194 0.14432-0.78237 0.14432t-0.7849-0.14432q-0.35448-0.14432-0.60767-0.39751-0.25066-0.25573-0.38992-0.60007-0.13672-0.34435-0.13672-0.74439 0-0.40005 0.13672-0.74439 0.13926-0.34435 0.38992-0.59754 0.25319-0.2532 0.60767-0.39752 0.35447-0.14432 0.7849-0.14432t0.78237 0.14686q0.35447 0.14432 0.60513 0.39751 0.25066 0.2532 0.38739 0.59754 0.13925 0.34434 0.13925 0.74186zm-0.87605 0q0-0.27345-0.0709-0.4912-0.0709-0.22028-0.20509-0.37219-0.13166-0.15192-0.32409-0.23294-0.19243-0.081-0.43802-0.081-0.24813 0-0.44309 0.081-0.19243 0.081-0.32662 0.23294-0.13166 0.15191-0.20256 0.37219-0.0709 0.21775-0.0709 0.4912 0 0.27598 0.0709 0.49626 0.0709 0.21775 0.20256 0.36966 0.13419 0.15192 0.32662 0.23294 0.19496 0.0785 0.44309 0.0785 0.24559 0 0.43802-0.0785 0.19243-0.081 0.32409-0.23294 0.13419-0.15191 0.20509-0.36966 0.0709-0.22028 0.0709-0.49626z"/>
  <path d="m208.56-121.85v0.65831h-1.5141v0.93429h1.2609v0.66083h-1.2609v1.4356h-0.86086v-3.689z"/>
  <path d="m218.29-121.85v0.65831h-1.5141v0.86086h1.1596v0.63298h-1.1596v0.87859h1.5141v0.6583h-2.375v-3.689z"/>
  <path d="m224.79-120.01q0 0.238-0.0506 0.45828-0.0481 0.21775-0.14179 0.41017-0.0911 0.19243-0.22787 0.35701-0.13419 0.16457-0.30637 0.29117l0.93429 1.0204h-0.70388q-0.15192 0-0.27598-0.038-0.12407-0.0354-0.22028-0.14685l-0.45828-0.51398q-0.11141 0.0228-0.22788 0.0354-0.11393 0.0127-0.23547 0.0127-0.43043 0-0.7849-0.14432t-0.60766-0.39751q-0.25067-0.25573-0.38992-0.60007-0.13673-0.34435-0.13673-0.74439 0-0.40005 0.13673-0.74439 0.13925-0.34435 0.38992-0.59754 0.25319-0.2532 0.60766-0.39752t0.7849-0.14432 0.78237 0.14686q0.35448 0.14432 0.60514 0.39751 0.25066 0.2532 0.38738 0.59754 0.13926 0.34434 0.13926 0.74186zm-0.87605 0q0-0.27345-0.0709-0.4912-0.0709-0.22028-0.20509-0.37219-0.13166-0.15192-0.32409-0.23294-0.19243-0.081-0.43803-0.081-0.24813 0-0.44309 0.081-0.19242 0.081-0.32662 0.23294-0.13166 0.15191-0.20255 0.37219-0.0709 0.21775-0.0709 0.4912 0 0.27598 0.0709 0.49626 0.0709 0.21775 0.20255 0.36966 0.1342 0.15192 0.32662 0.23294 0.19496 0.0785 0.44309 0.0785 0.2456 0 0.43803-0.0785 0.19243-0.081 0.32409-0.23294 0.13419-0.15191 0.20509-0.36966 0.0709-0.22028 0.0709-0.49626z"/>
  <path d="m229.12-118.84q0.17218 0 0.30637-0.0557 0.13672-0.0582 0.23041-0.16457 0.0937-0.10635 0.14178-0.25826 0.0506-0.15445 0.0506-0.34941v-2.1851h0.8558v2.1851q0 0.33928-0.11141 0.62286-0.10887 0.28357-0.31396 0.48866-0.20508 0.20509-0.49879 0.31903-0.2937 0.11393-0.66084 0.11393-0.36966 0-0.66336-0.11393-0.29371-0.11394-0.4988-0.31903-0.20508-0.20509-0.31396-0.48866-0.10887-0.28358-0.10887-0.62286v-2.1851h0.8558v2.1825q0 0.19496 0.0481 0.34941 0.0506 0.15191 0.14432 0.26079 0.0937 0.10634 0.22788 0.16457 0.13672 0.0557 0.30889 0.0557z"/>
  <path d="m234.57-118.16h-0.86086v-3.689h0.86086z"/>
  <path d="m238.08-121.85q0.0557 0 0.0937 5e-3t0.0684 0.0203q0.0304 0.0127 0.0582 0.038 0.0279 0.0253 0.0633 0.0684l1.7521 2.2154q-0.0101-0.10634-0.0152-0.20508-5e-3 -0.10128-5e-3 -0.1899v-1.9521h0.75452v3.689h-0.44563q-0.0987 0-0.1671-0.0304t-0.13167-0.11141l-1.7394-2.1977q8e-3 0.0962 0.0127 0.18989 5e-3 0.0911 5e-3 0.17218v1.9774h-0.75451v-3.689h0.45068z"/>
  <path d="m246.21-121.85v0.65831h-1.5141v0.86086h1.1596v0.63298h-1.1596v0.87859h1.5141v0.6583h-2.375v-3.689z"/>
  <path d="m255.66-121.1q-0.038 0.0608-0.081 0.0911-0.0405 0.0304-0.10634 0.0304-0.0582 0-0.1266-0.0354-0.0658-0.038-0.15192-0.0836-0.0836-0.0456-0.19242-0.081-0.10888-0.038-0.24813-0.038-0.24054 0-0.35954 0.10381-0.11647 0.10128-0.11647 0.27598 0 0.11141 0.0709 0.18483 0.0709 0.0734 0.18484 0.1266 0.11647 0.0532 0.26332 0.0987 0.14938 0.043 0.30383 0.0987 0.15445 0.0532 0.3013 0.1266 0.14939 0.0734 0.26332 0.18736 0.11647 0.11394 0.18737 0.27852 0.0709 0.16204 0.0709 0.39245 0 0.25572-0.0886 0.47853t-0.25825 0.38992q-0.16711 0.16458-0.41524 0.26079-0.2456 0.0937-0.55956 0.0937-0.17217 0-0.35194-0.0354-0.17724-0.0354-0.34435-0.0987-0.1671-0.0658-0.31396-0.15445-0.14685-0.0886-0.25572-0.19749l0.25319-0.40005q0.0279-0.0456 0.0785-0.0734 0.0506-0.0279 0.10888-0.0279 0.076 0 0.15191 0.0481 0.0785 0.0481 0.17471 0.10635 0.0987 0.0582 0.22534 0.10634 0.1266 0.0481 0.29877 0.0481 0.23294 0 0.36207-0.10127 0.12912-0.10381 0.12912-0.32662 0-0.12913-0.0709-0.21016-0.0709-0.081-0.18736-0.13419-0.11394-0.0532-0.26079-0.0937-0.14686-0.0405-0.3013-0.0886-0.15445-0.0506-0.30131-0.12153-0.14685-0.0734-0.26332-0.1899-0.11393-0.119-0.18483-0.2937-0.0709-0.17724-0.0709-0.4355 0-0.20762 0.0836-0.40511t0.2456-0.35194q0.16204-0.15444 0.39751-0.24559 0.23547-0.0937 0.53931-0.0937 0.16964 0 0.32915 0.0279 0.16204 0.0253 0.30636 0.0785 0.14433 0.0506 0.26839 0.12406 0.1266 0.0709 0.22534 0.16204z"/>
  <path d="m262.16-118.16h-0.66337q-0.11141 0-0.18483-0.0506-0.0709-0.0532-0.0987-0.13419l-0.21774-0.64311h-1.4027l-0.21775 0.64311q-0.0253 0.0709-0.0987 0.12913-0.0734 0.0557-0.17977 0.0557h-0.66843l1.428-3.689h0.87605zm-2.3699-1.4103h1.0077l-0.33928-1.0102q-0.0329-0.0962-0.0785-0.22535-0.043-0.13166-0.0861-0.28357-0.0405 0.15445-0.0836 0.28611-0.043 0.13166-0.081 0.22787z"/>
  <path d="m265.69-118.84h1.3672v0.68362h-2.223v-3.689h0.8558z"/>
  <path d="m272.21-121.85v0.65831h-1.5141v0.86086h1.1596v0.63298h-1.1596v0.87859h1.5141v0.6583h-2.375v-3.689z"/>
  <path d="m277.13-121.1q-0.038 0.0608-0.081 0.0911-0.0405 0.0304-0.10634 0.0304-0.0582 0-0.1266-0.0354-0.0658-0.038-0.15191-0.0836-0.0836-0.0456-0.19243-0.081-0.10887-0.038-0.24813-0.038-0.24053 0-0.35954 0.10381-0.11646 0.10128-0.11646 0.27598 0 0.11141 0.0709 0.18483 0.0709 0.0734 0.18483 0.1266 0.11647 0.0532 0.26332 0.0987 0.14939 0.043 0.30384 0.0987 0.15444 0.0532 0.3013 0.1266 0.14938 0.0734 0.26332 0.18736 0.11647 0.11394 0.18736 0.27852 0.0709 0.16204 0.0709 0.39245 0 0.25572-0.0886 0.47853t-0.25826 0.38992q-0.16711 0.16458-0.41524 0.26079-0.2456 0.0937-0.55956 0.0937-0.17217 0-0.35194-0.0354-0.17723-0.0354-0.34434-0.0987-0.16711-0.0658-0.31396-0.15445-0.14685-0.0886-0.25573-0.19749l0.2532-0.40005q0.0279-0.0456 0.0785-0.0734 0.0506-0.0279 0.10887-0.0279 0.076 0 0.15192 0.0481 0.0785 0.0481 0.1747 0.10635 0.0987 0.0582 0.22534 0.10634 0.1266 0.0481 0.29877 0.0481 0.23294 0 0.36207-0.10127 0.12913-0.10381 0.12913-0.32662 0-0.12913-0.0709-0.21016-0.0709-0.081-0.18737-0.13419-0.11394-0.0532-0.26079-0.0937t-0.3013-0.0886q-0.15445-0.0506-0.3013-0.12153-0.14685-0.0734-0.26332-0.1899-0.11394-0.119-0.18483-0.2937-0.0709-0.17724-0.0709-0.4355 0-0.20762 0.0836-0.40511t0.24559-0.35194q0.16205-0.15444 0.39752-0.24559 0.23547-0.0937 0.5393-0.0937 0.16964 0 0.32915 0.0279 0.16205 0.0253 0.30637 0.0785 0.14432 0.0506 0.26839 0.12406 0.12659 0.0709 0.22534 0.16204z"/>
  <rect x="128.38" y="-124.98" width="160.53" height=".32843" enable-background="new"/>
  <path d="m134.57-124.65v2.2872l-6.1936-2.2872z" enable-background="new" opacity=".453"/>
 </g>
</svg>
